…
### Daily usage, last 30 days

``` r

usage <- util_fetch_usage(
  starting_at  = Sys.time() - 30 * 24 * 3600,
  ending_at    = Sys.time(),
  bucket_width = "1d"
)
usage
```

Expected output (columns depend on `group_by`):

    # A tibble: 30 × 6
       timestamp_bucket     input_tokens output_tokens cache_creation_input_tokens
       <chr>                       <int>         <int>                       <int>
     1 2026-04-01T00:00:00Z       482910        128470                      182043
     2 2026-04-02T00:00:00Z       291830         73291                       91032
     # ℹ 28 more rows
     # ℹ 2 more variables: cache_read_input_tokens <int>, n_requests <int>
…
synthetic_usage <- tidyr::expand_grid(
  timestamp_bucket = paste0(dates, "T00:00:00Z"),
  model            = models
) |>
  dplyr::mutate(
    input_tokens                = as.integer(runif(dplyr::n(), 5e4, 5e5)),
    output_tokens               = as.integer(runif(dplyr::n(), 1e4, 1e5)),
    cache_creation_input_tokens = as.integer(runif(dplyr::n(), 0,   2e5)),
    cache_read_input_tokens     = as.integer(runif(dplyr::n(), 1e5, 2e6)),
    n_requests                  = as.integer(runif(dplyr::n(), 10,  200))
  )

synthetic_usage
#> # A tibble: 28 × 7
#>    timestamp_bucket     model  input_tokens output_tokens cache_creation_input…¹
#>    <chr>                <chr>         <int>         <int>                  <int>
#>  1 2026-05-01T00:00:00Z claud…       461662         50227                 135455
#>  2 2026-05-01T00:00:00Z claud…       471683         85240                  34252
#>  3 2026-05-02T00:00:00Z claud…       178762         76383                  52217
#>  4 2026-05-02T00:00:00Z claud…       423701         82994                 102882
#>  5 2026-05-03T00:00:00Z claud…       338785         44929                 135121
#>  6 2026-05-03T00:00:00Z claud…       283593         71665                 196563
#>  7 2026-05-04T00:00:00Z claud…       381464         10355                 151908
#>  8 2026-05-04T00:00:00Z claud…       110599         84962                 113297
#>  9 2026-05-05T00:00:00Z claud…       345646         10660                 169937
#> 10 2026-05-05T00:00:00Z claud…       367279         28689                  37894
#> # ℹ 18 more rows
#> # ℹ abbreviated name: ¹​cache_creation_input_tokens
#> # ℹ 2 more variables: cache_read_input_tokens <int>, n_requests <int>
```
…
