…
Claude Code writes one JSONL file per session under
`~/.claude/projects/`.
[`util_read_claude_code()`](https://mjfrigaard.github.io/shokenuse/reference/util_read_claude_code.md)
scans that directory recursively and returns one row per API response.

``` r

library(shokenuse)

usage <- util_read_claude_code()
usage
```

    # A tibble: 3,847 × 10
       timestamp           machine source       project         session_id  model
       <dttm>              <chr>   <chr>        <chr>           <chr>       <chr>
     1 2026-04-01 08:12:03 local   claude_code  projects/apps/R abc123…     claude-opus-4
     2 2026-04-01 08:12:41 local   claude_code  projects/apps/R abc123…     claude-opus-4
     3 2026-04-01 09:45:10 local   claude_code  projects/pkgs/… def456…     claude-sonnet-4
     # ℹ 3,844 more rows
     # ℹ 4 more variables: input_tokens <int>, cache_creation_tokens <int>,
     #   cache_read_tokens <int>, output_tokens <int>
…
Prices are in USD per million tokens. Cache-read tokens are typically
the largest token category in long Claude Code sessions (the full
project context is re-read on every turn), but they cost roughly **10×
less** than standard input — so the cost impact is often smaller than
the raw counts suggest.

``` r

usage_with_cost <- util_add_cost(usage)
dplyr::select(usage_with_cost, timestamp, model, input_tokens, output_tokens,
              cache_read_tokens, cost_usd)
```

    # A tibble: 3,847 × 6
       timestamp           model           input_tokens output_tokens cache_read_tokens cost_usd
       <dttm>              <chr>                  <int>         <int>             <int>    <dbl>
     1 2026-04-01 08:12:03 claude-opus-4           1284           342             42081   0.0814
     2 2026-04-01 08:12:41 claude-opus-4            891           178             49204   0.0882
     3 2026-04-01 09:45:10 claude-sonnet-4          302            84              8741   0.00365
     # ℹ 3,844 more rows
…
## Summarising usage

### By date

[`util_summarise_usage()`](https://mjfrigaard.github.io/shokenuse/reference/util_summarise_usage.md)
aggregates token counts and cost by any grouping variable. The default
group is `"date"`:

``` r

daily <- util_summarise_usage(usage_with_cost)
daily
```

    # A tibble: 49 × 7
       date       input_tokens cache_creation_tokens cache_read_tokens output_tokens cost_usd n_requests
       <date>            <int>                 <int>             <int>         <int>    <dbl>      <int>
     1 2026-04-01        48291                182043           2481054        128470     52.4         87
     2 2026-04-02        29183                 91032           1594821         73291     31.8         54
     3 2026-04-03         8102                 22841            441093         21874      9.02        21
     # ℹ 46 more rows
…
## Exploring sessions

A *session* is one continuous Claude Code conversation (one JSONL file).
Long or exploratory sessions can consume far more tokens than focused
ones.
[`util_summarise_sessions()`](https://mjfrigaard.github.io/shokenuse/reference/util_summarise_sessions.md)
aggregates to one row per session:

``` r

sessions <- util_summarise_sessions(usage_with_cost)
sessions
```

    # A tibble: 214 × 15
       session_id project         machine model           date       duration_min n_requests
       <chr>      <chr>           <chr>   <chr>           <date>            <dbl>      <int>
     1 9f3a1c…    projects/apps/R macOS   claude-opus-4   2026-05-12        187.          43
     2 2d8e4b…    projects/books  macOS   claude-opus-4   2026-05-08         94.2         21
     3 b71f30…    projects/pkgs/… macOS   claude-sonnet-4 2026-05-15         62.4         18
     # ℹ 211 more rows
     # ℹ 8 more variables: input_tokens <int>, output_tokens <int>,
     #   cache_creation_tokens <int>, cache_read_tokens <int>,
     #   total_tokens <int>, cost_usd <dbl>, outlier <lgl>
…
